<?xml version="1.0" encoding="UTF-8" ?>
<!DOCTYPE svg PUBLIC "-//W3C//DTD SVG 1.1//EN" "http://www.w3.org/Graphics/SVG/1.1/DTD/svg11.dtd">
<svg width="300pt" height="300pt" viewBox="0 0 300 300" version="1.1" xmlns="http://www.w3.org/2000/svg">
<g id="#000000ff">
<path fill="#000000" opacity="1.00" d=" M 5.14 41.66 C 10.06 32.02 21.47 26.76 32.02 27.63 C 111.01 27.65 190.00 27.67 268.99 27.62 C 277.52 27.10 286.34 30.48 291.98 36.97 C 294.32 39.57 295.73 42.81 297.40 45.85 C 297.38 46.30 297.34 47.19 297.32 47.64 L 298.39 47.64 C 298.66 51.09 298.95 54.55 298.95 58.01 C 298.93 96.33 298.95 134.65 298.94 172.97 C 298.90 180.84 299.17 188.72 298.48 196.57 L 297.37 196.42 C 297.38 197.09 297.41 198.43 297.42 199.10 C 294.30 204.98 290.30 210.73 284.17 213.75 C 279.53 216.28 274.18 216.83 268.99 216.74 C 212.83 216.65 156.68 216.87 100.52 216.63 C 97.51 219.28 95.15 222.54 92.63 225.64 C 81.79 238.85 70.99 252.10 60.04 265.22 C 56.36 269.95 49.75 272.35 44.09 269.80 C 43.72 269.72 42.98 269.56 42.62 269.47 C 39.39 267.18 36.90 264.04 35.58 260.29 C 35.09 246.02 35.47 231.73 35.36 217.45 C 32.95 217.34 30.54 217.25 28.14 217.05 C 25.55 216.48 22.88 216.27 20.33 215.49 C 9.91 212.17 2.04 201.98 1.64 191.02 C 1.61 146.02 1.67 101.02 1.61 56.02 C 1.46 51.03 2.75 46.04 5.14 41.66 M 23.84 42.79 C 20.67 44.21 18.57 47.10 16.65 49.87 C 16.24 52.57 15.61 55.24 15.62 57.98 C 15.66 100.99 15.63 143.99 15.64 187.00 C 15.68 189.54 16.21 192.04 16.55 194.55 C 18.19 196.81 19.62 199.50 22.28 200.71 C 29.07 204.49 37.07 201.55 44.32 203.13 C 46.70 203.76 48.00 206.05 49.45 207.85 C 49.55 224.03 49.18 240.23 49.63 256.41 C 50.76 254.60 51.93 252.81 53.28 251.16 C 64.51 237.66 75.45 223.91 86.75 210.46 C 88.30 208.71 89.78 206.87 91.04 204.89 C 93.15 203.66 95.42 202.49 97.94 202.68 C 153.62 202.69 209.31 202.66 264.99 202.69 C 268.90 202.62 273.03 203.14 276.69 201.44 C 281.90 199.30 285.15 193.58 284.58 188.01 C 284.47 142.58 284.87 97.14 284.38 51.72 C 283.02 49.20 281.82 46.43 279.49 44.63 C 276.34 41.91 271.93 41.84 268.00 41.58 C 191.98 41.59 115.97 41.58 39.96 41.58 C 34.58 41.60 29.07 41.20 23.84 42.79 Z" />
<path fill="#000000" opacity="1.00" d=" M 116.20 62.95 C 125.54 57.13 136.61 53.64 147.68 54.74 C 155.11 55.79 162.49 57.97 168.90 61.94 C 177.50 67.80 184.40 76.15 188.14 85.89 C 191.53 96.19 191.65 107.58 188.24 117.89 C 186.05 123.46 183.06 128.72 179.33 133.40 C 174.23 138.88 167.98 143.21 161.13 146.22 C 159.11 146.69 157.15 147.36 155.25 148.19 C 153.69 148.33 152.13 148.45 150.57 148.58 C 150.52 151.86 150.53 155.13 150.47 158.41 C 149.30 159.73 148.15 161.07 147.06 162.45 C 144.65 162.60 142.23 162.61 139.82 162.52 C 138.64 160.78 136.57 159.35 136.51 157.08 C 136.35 152.25 135.80 147.13 137.82 142.59 C 139.04 140.28 141.14 138.62 142.96 136.80 C 146.95 135.37 151.00 134.08 155.17 133.28 C 164.99 129.10 173.12 120.60 175.61 110.08 C 177.62 103.81 176.38 97.25 175.15 90.98 C 174.79 90.57 174.05 89.77 173.68 89.36 C 173.62 88.78 173.51 87.62 173.45 87.04 C 171.22 84.41 169.44 81.43 167.16 78.85 C 163.79 75.56 159.76 73.03 155.59 70.88 C 148.67 68.78 140.96 68.26 133.98 70.31 C 133.43 70.43 132.32 70.69 131.77 70.81 C 130.40 71.49 129.02 72.17 127.64 72.85 C 120.96 76.29 116.24 82.36 112.71 88.83 C 112.62 89.39 112.42 90.52 112.32 91.08 C 109.94 95.76 110.87 101.17 109.24 106.06 C 107.58 107.86 105.33 108.77 103.00 109.34 C 100.63 108.71 98.43 107.67 96.54 106.09 C 96.32 102.04 96.22 97.97 96.58 93.93 C 97.32 90.17 98.70 86.58 99.80 82.92 C 103.55 75.02 109.25 68.23 116.20 62.95 Z" />
<path fill="#000000" opacity="1.00" d=" M 136.40 183.06 C 136.08 178.94 139.85 175.32 144.00 176.25 C 147.19 175.70 148.80 178.70 150.49 180.78 C 150.50 182.25 150.51 183.73 150.53 185.20 C 149.35 186.59 148.18 187.99 147.03 189.41 C 144.68 189.55 142.33 189.57 139.98 189.52 C 138.38 187.63 135.99 185.85 136.40 183.06 Z" />
</g>
</svg>
