<?xml version="1.0" encoding="UTF-8" ?>
<!DOCTYPE svg PUBLIC "-//W3C//DTD SVG 1.1//EN" "http://www.w3.org/Graphics/SVG/1.1/DTD/svg11.dtd">
<svg width="300pt" height="300pt" viewBox="0 0 300 300" version="1.1" xmlns="http://www.w3.org/2000/svg">
<g id="#000000ff">
<path fill="#000000" opacity="1.00" d=" M 140.66 13.03 C 140.72 8.40 142.75 3.94 146.79 1.49 C 149.87 1.20 152.98 1.23 156.07 1.56 C 159.68 3.78 161.89 7.70 161.64 11.97 C 161.58 76.30 161.77 140.64 161.52 204.97 C 163.78 204.84 165.05 203.00 166.49 201.54 C 187.72 182.73 208.78 163.75 230.00 144.94 C 234.01 141.21 238.05 137.45 242.74 134.57 C 244.93 134.52 247.13 134.52 249.33 134.57 C 251.72 136.30 254.84 137.84 255.48 141.03 C 255.99 143.93 256.08 147.13 254.81 149.84 C 252.34 153.01 249.28 155.66 246.17 158.19 C 227.06 175.40 207.81 192.44 188.60 209.55 C 181.69 215.95 174.58 222.14 167.47 228.31 C 162.93 232.15 157.01 234.36 151.03 233.79 C 143.83 234.49 137.29 230.59 132.26 225.81 C 109.46 205.60 86.81 185.24 64.01 165.01 C 58.74 159.79 52.54 155.49 47.81 149.73 L 46.94 147.42 L 48.51 146.83 C 47.39 145.85 46.57 147.02 46.02 147.97 C 46.71 145.45 46.26 142.68 47.41 140.28 C 48.43 137.72 50.98 136.32 52.98 134.61 C 55.38 134.53 57.77 134.50 60.16 134.63 C 67.92 139.76 74.17 146.79 81.36 152.65 C 98.99 168.40 116.60 184.17 134.26 199.89 C 136.54 201.43 137.98 204.10 140.67 204.99 C 140.69 141.01 140.70 77.02 140.66 13.03 Z" />
<path fill="#000000" opacity="1.00" d=" M 20.45 280.44 C 22.95 280.13 25.43 279.64 27.95 279.60 C 110.34 279.64 192.74 279.61 275.13 279.62 C 277.57 279.70 279.96 280.18 282.38 280.48 C 284.14 282.03 285.84 283.65 287.41 285.40 C 287.60 286.94 287.90 288.46 288.30 289.97 C 287.65 292.28 287.46 294.96 285.58 296.68 C 283.88 298.39 281.56 299.26 279.32 300.00 L 23.86 300.00 C 21.42 299.02 18.45 298.60 16.70 296.43 C 14.29 293.33 14.03 288.95 15.42 285.37 C 16.53 283.23 18.65 281.93 20.45 280.44 Z" />
</g>
</svg>
