<?xml version="1.0" encoding="UTF-8" ?>
<!DOCTYPE svg PUBLIC "-//W3C//DTD SVG 1.1//EN" "http://www.w3.org/Graphics/SVG/1.1/DTD/svg11.dtd">
<svg width="300pt" height="300pt" viewBox="0 0 300 300" version="1.1" xmlns="http://www.w3.org/2000/svg">
<g id="#000000ff">
<path fill="#000000" opacity="1.00" d=" M 142.80 19.75 C 144.97 18.32 147.26 16.43 150.04 16.76 C 152.40 16.93 154.34 18.48 156.24 19.73 C 198.97 50.99 241.66 82.29 284.38 113.54 C 288.86 117.14 294.28 119.82 297.42 124.81 C 297.42 126.32 297.45 127.82 297.49 129.33 C 295.73 134.51 288.74 137.21 284.42 133.37 C 244.88 104.66 205.57 75.62 166.08 46.83 C 160.64 42.66 154.87 38.90 149.61 34.50 C 109.11 64.38 68.41 94.00 27.85 123.80 C 22.92 127.16 18.38 131.09 13.25 134.15 C 8.72 137.08 1.76 133.42 1.53 128.05 C 0.98 124.37 3.89 121.57 6.53 119.52 C 51.95 86.27 97.37 53.00 142.80 19.75 Z" />
<path fill="#000000" opacity="1.00" d=" M 36.39 137.44 C 40.43 132.78 49.52 135.52 49.79 141.90 C 50.77 151.57 49.79 161.32 50.16 171.02 C 50.15 174.68 49.60 178.33 49.81 182.00 C 50.50 207.98 50.04 233.96 50.08 259.94 C 50.14 261.69 50.29 263.44 50.46 265.19 C 68.98 265.09 87.49 265.16 106.01 265.16 C 107.78 265.14 109.51 264.75 111.23 264.36 C 111.15 242.23 111.19 220.11 111.21 197.99 C 110.94 190.38 113.41 182.80 117.68 176.55 C 124.14 166.84 135.40 160.61 147.01 159.99 C 155.81 159.30 164.84 161.85 172.00 167.01 C 181.92 173.89 188.25 185.93 187.81 198.05 C 187.84 220.15 187.87 242.25 187.79 264.35 C 189.48 264.80 191.20 265.19 192.97 265.16 C 211.44 265.16 229.91 265.08 248.38 265.20 C 249.65 262.29 249.16 259.07 249.22 256.00 C 249.20 219.00 249.24 182.00 249.20 145.01 C 249.34 142.61 249.00 139.76 250.91 137.93 C 253.70 134.20 260.31 134.12 263.06 137.93 C 264.70 139.86 265.18 142.46 265.20 144.92 C 265.20 186.62 265.17 228.33 265.21 270.03 C 265.79 275.35 262.03 281.64 256.02 280.58 C 230.66 280.54 205.30 280.62 179.94 280.55 C 175.88 280.83 172.27 277.01 172.45 273.02 C 172.42 248.34 172.47 223.65 172.43 198.97 C 172.46 188.67 165.05 178.63 154.86 176.37 C 142.07 172.57 126.91 183.44 127.31 196.97 C 127.09 196.29 126.88 195.62 126.66 194.96 C 126.50 220.96 126.64 246.96 126.58 272.97 C 126.86 276.27 124.43 279.39 121.31 280.31 C 119.57 280.64 117.78 280.56 116.01 280.59 C 91.34 280.53 66.67 280.61 42.00 280.56 C 37.36 281.01 33.77 276.43 34.18 272.03 C 34.14 229.67 34.19 187.32 34.15 144.96 C 34.10 142.31 34.32 139.37 36.39 137.44 Z" />
</g>
</svg>
