<?xml version="1.0" encoding="UTF-8" ?>
<!DOCTYPE svg PUBLIC "-//W3C//DTD SVG 1.1//EN" "http://www.w3.org/Graphics/SVG/1.1/DTD/svg11.dtd">
<svg width="300pt" height="300pt" viewBox="0 0 300 300" version="1.1" xmlns="http://www.w3.org/2000/svg">
<g id="#000000ff">
<path fill="#000000" opacity="1.00" d=" M 84.37 64.54 C 127.25 64.28 170.15 64.49 213.03 64.44 C 231.66 64.33 250.29 70.64 264.94 82.16 C 281.17 94.58 292.31 113.24 296.29 133.23 C 299.85 151.62 297.37 171.20 288.95 187.96 C 278.16 209.83 257.62 226.81 233.86 232.62 C 226.68 234.15 219.41 235.80 212.02 235.57 C 172.35 235.57 132.69 235.56 93.02 235.57 C 76.87 236.08 60.52 232.52 46.18 225.03 C 28.08 215.35 13.47 199.09 6.33 179.80 C -1.01 160.68 -1.07 138.87 6.36 119.76 C 13.15 101.35 26.73 85.69 43.70 75.93 C 56.08 68.95 70.13 64.80 84.37 64.54 M 87.38 77.48 C 58.20 77.26 30.10 96.27 19.21 123.29 C 12.42 139.15 12.04 157.55 18.18 173.67 C 23.98 189.65 35.64 203.28 50.26 211.88 C 61.58 218.75 74.81 222.04 87.99 222.24 C 129.32 222.29 170.64 222.24 211.97 222.26 C 224.40 222.07 236.88 219.30 247.73 213.10 C 265.91 203.11 279.20 184.86 283.31 164.54 C 286.25 150.30 284.90 135.12 279.13 121.74 C 271.37 102.58 254.77 87.27 235.08 81.00 C 227.34 78.42 219.15 77.38 211.01 77.42 C 169.80 77.48 128.59 77.36 87.38 77.48 Z" />
<path fill="#000000" opacity="1.00" d=" M 83.00 89.75 C 98.13 88.93 113.70 93.74 125.15 103.81 C 136.07 113.09 143.45 126.40 145.57 140.57 C 148.03 156.02 144.14 172.35 135.03 185.07 C 127.08 195.93 115.61 204.38 102.49 207.76 C 85.94 212.34 67.47 209.41 53.16 199.91 C 39.45 190.97 29.51 176.29 26.92 160.08 C 25.01 147.23 26.46 133.58 32.85 122.10 C 42.29 103.43 62.18 90.91 83.00 89.75 Z" />
</g>
</svg>
