<?xml version="1.0" encoding="UTF-8" ?>
<!DOCTYPE svg PUBLIC "-//W3C//DTD SVG 1.1//EN" "http://www.w3.org/Graphics/SVG/1.1/DTD/svg11.dtd">
<svg width="300pt" height="300pt" viewBox="0 0 300 300" version="1.1" xmlns="http://www.w3.org/2000/svg">
<g id="#000000ff">
<path fill="#000000" opacity="1.00" d=" M 64.13 54.09 C 86.91 29.98 118.93 14.87 152.02 12.58 C 162.03 12.37 172.13 11.93 182.04 13.61 C 221.69 18.87 258.10 43.07 278.95 77.11 C 302.69 114.75 305.70 164.25 287.43 204.72 C 276.30 229.69 257.45 251.08 234.13 265.29 C 215.85 276.90 194.55 283.24 173.09 285.22 C 144.52 287.20 115.16 280.46 90.85 265.15 C 56.71 244.27 32.50 207.73 27.31 167.96 C 25.92 161.24 26.89 154.29 25.40 147.59 C 23.36 151.35 19.78 153.85 16.97 156.98 C 14.63 159.49 11.77 162.30 8.00 161.71 C 1.98 161.49 -0.94 153.38 3.20 149.15 C 10.06 141.70 17.52 134.81 24.55 127.51 C 26.87 125.06 29.46 122.60 32.84 121.76 C 36.05 121.66 38.76 123.90 40.96 126.02 C 48.22 133.40 55.58 140.67 62.87 148.03 C 64.47 149.61 65.90 151.60 65.61 153.99 C 66.25 158.20 62.03 162.07 57.94 161.72 C 54.84 161.91 52.54 159.54 50.54 157.52 C 47.41 154.19 43.81 151.28 41.24 147.45 C 40.73 174.19 49.62 201.01 65.99 222.16 C 79.19 239.92 97.60 253.61 118.13 261.79 C 149.08 274.23 185.26 272.96 215.20 258.18 C 255.07 239.34 282.98 197.26 283.79 153.06 C 284.98 128.28 277.69 103.29 264.21 82.53 C 254.02 67.13 240.45 53.92 224.53 44.53 C 196.52 27.54 161.50 23.14 129.99 31.83 C 112.09 36.94 95.34 46.08 81.52 58.55 C 77.84 61.73 74.37 66.86 68.88 66.18 C 63.47 65.41 60.48 58.33 64.13 54.09 Z" />
<path fill="#000000" opacity="1.00" d=" M 141.59 74.71 C 152.23 68.73 165.48 67.59 176.96 71.77 C 189.47 76.03 199.69 86.45 203.82 98.99 C 207.73 110.11 205.87 122.05 206.17 133.58 C 211.11 133.60 216.07 133.30 221.00 133.68 C 225.29 134.39 227.28 138.97 227.19 142.91 C 227.21 166.31 227.25 189.72 227.17 213.12 C 227.31 217.53 223.84 222.24 219.08 221.76 C 181.38 221.80 143.68 221.81 105.99 221.75 C 101.77 222.09 98.05 218.26 98.35 214.08 C 98.24 190.05 98.33 166.02 98.31 141.99 C 97.87 138.27 100.36 134.59 103.97 133.67 C 108.91 133.29 113.87 133.62 118.82 133.55 C 118.85 124.65 118.73 115.74 119.46 106.85 C 121.27 93.47 129.72 81.18 141.59 74.71 M 159.55 84.76 C 147.65 85.85 137.27 95.42 134.93 107.08 C 133.47 115.83 134.61 124.76 134.13 133.58 C 153.04 133.47 171.94 133.53 190.85 133.55 C 190.80 125.37 191.13 117.17 190.58 109.00 C 188.78 94.42 174.23 82.77 159.55 84.76 M 113.32 206.73 C 146.11 206.69 178.90 206.62 211.70 206.77 C 211.55 187.38 211.65 167.99 211.64 148.61 C 178.89 148.65 146.13 148.61 113.38 148.63 C 113.36 167.99 113.48 187.37 113.32 206.73 Z" />
</g>
</svg>
